…
    mtcars %>%
      group_by(gear,carb) %>%
      nest()

    # A tibble: 11 x 3
    # Groups:   gear, carb [11]
        gear  carb data            
       <dbl> <dbl> <list>          
     1     4     4 <tibble [4 x 9]>
     2     4     1 <tibble [4 x 9]>
     3     3     1 <tibble [3 x 9]>
     4     3     2 <tibble [4 x 9]>
     5     3     4 <tibble [5 x 9]>
     6     4     2 <tibble [4 x 9]>
     7     3     3 <tibble [3 x 9]>
     8     5     2 <tibble [2 x 9]>
     9     5     4 <tibble [1 x 9]>
    10     5     6 <tibble [1 x 9]>
    # ... with 1 more row

    mtcars %>%
      nest(datos = !c(gear,carb))

    # A tibble: 11 x 3
        gear  carb datos           
       <dbl> <dbl> <list>          
     1     4     4 <tibble [4 x 9]>
     2     4     1 <tibble [4 x 9]>
     3     3     1 <tibble [3 x 9]>
     4     3     2 <tibble [4 x 9]>
     5     3     4 <tibble [5 x 9]>
     6     4     2 <tibble [4 x 9]>
     7     3     3 <tibble [3 x 9]>
     8     5     2 <tibble [2 x 9]>
     9     5     4 <tibble [1 x 9]>
    10     5     6 <tibble [1 x 9]>
    # ... with 1 more row
…
    peleas %>%
      mutate(casting_split = strsplit(casting, split = ",")) %>%
      select(-horario,-casting) %>%
      unnest(casting_split) %>%
      left_join(luchadores, by = c("casting_split" = "codigo"))

    # A tibble: 11 x 3
       pelea casting_split nombre         
       <dbl> <chr>         <chr>          
     1     1 gsf901        Vicente Viloni 
     2     1 fez195        Fulgencio Mejía
     3     1 yfm179        Steve Murphy   
     4     2 thf028        Hip Hop Man    
     5     2 yfm179        Steve Murphy   
     6     3 jfa348        Mc Floyd       
     7     3 fez195        Fulgencio Mejía
     8     3 gky651        Rulo Verde     
     9     3 wpx281        La Masa        
    10     4 thf028        Hip Hop Man    
    # ... with 1 more row
…
    `summarise()` regrouping output by 'empresa' (override with `.groups` argument)

    fechas_todas %>%
      unnest(fechas) %>%
      left_join(datos, by = c("empresa","producto","fechas" = "fecha"))

    # A tibble: 57 x 4
    # Groups:   empresa [2]
       empresa producto fechas     evento
       <chr>   <chr>    <date>      <dbl>
     1 A       A1       2018-06-02    112
     2 A       A1       2018-06-03     NA
     3 A       A1       2018-06-04     NA
     4 A       A1       2018-06-05     NA
     5 A       A1       2018-06-06    141
     6 A       A1       2018-06-07     NA
     7 A       A1       2018-06-08     NA
     8 A       A1       2018-06-09     NA
     9 A       A1       2018-06-10     NA
    10 A       A1       2018-06-11     NA
    # ... with 47 more rows
…
